main.c:79:5:main	8	static
main.c:139:6:SystemClock_Config	88	static
main.c:185:13:MX_I2C1_Init	8	static
main.c:219:13:MX_GPIO_Init	48	static
main.c:312:13:SGP30_measure	56	static
main.c:370:6:intToString	16	static
main.c:381:6:Error_Handler	4	static,ignoring_inline_asm
